top_level_ESN_system.vcd
$date
	Thu Nov 28 14:51:36 2024
$end
$version
	Icarus Verilog
$end
$timescale
	1ps
$end
$scope module top_level_ESN_system $end
$var wire 16 ! sine_wave_out [15:0] $end
$var wire 10 " i_outs [9:0] $end
$var wire 32 # bitstream_out [31:0] $end
$var wire 32 $ VOUT9 [31:0] $end
$var wire 32 % VOUT8 [31:0] $end
$var wire 32 & VOUT7 [31:0] $end
$var wire 32 ' VOUT6 [31:0] $end
$var wire 32 ( VOUT5 [31:0] $end
$var wire 32 ) VOUT4 [31:0] $end
$var wire 32 * VOUT3 [31:0] $end
$var wire 32 + VOUT2 [31:0] $end
$var wire 32 , VOUT10 [31:0] $end
$var wire 32 - VOUT1 [31:0] $end
$var reg 1 . clk $end
$var reg 32 / ext_input [31:0] $end
$var reg 8 0 freq_control [7:0] $end
$var reg 1 1 rst $end
$var reg 16 2 seed1 [15:0] $end
$var reg 16 3 seed10 [15:0] $end
$var reg 16 4 seed2 [15:0] $end
$var reg 16 5 seed3 [15:0] $end
$var reg 16 6 seed4 [15:0] $end
$var reg 16 7 seed5 [15:0] $end
$var reg 16 8 seed6 [15:0] $end
$var reg 16 9 seed7 [15:0] $end
$var reg 16 : seed8 [15:0] $end
$var reg 16 ; seed9 [15:0] $end
$var reg 8 < sp_in_1 [7:0] $end
$var reg 8 = sp_in_10 [7:0] $end
$var reg 8 > sp_in_2 [7:0] $end
$var reg 8 ? sp_in_3 [7:0] $end
$var reg 8 @ sp_in_4 [7:0] $end
$var reg 8 A sp_in_5 [7:0] $end
$var reg 8 B sp_in_6 [7:0] $end
$var reg 8 C sp_in_7 [7:0] $end
$var reg 8 D sp_in_8 [7:0] $end
$var reg 8 E sp_in_9 [7:0] $end
$var integer 32 F csv_file [31:0] $end
$var integer 32 G i [31:0] $end
$scope function convert_to_real $end
$var reg 16 H fixed_point_value [15:0] $end
$upscope $end
$scope module neuron1 $end
$var wire 1 . clk $end
$var wire 32 I ext_input [31:0] $end
$var wire 8 J p_s [7:0] $end
$var wire 16 K req_seed [0:15] $end
$var wire 1 1 rst $end
$var wire 8 L sp_in [7:0] $end
$var wire 1 M req $end
$var parameter 8 N s0 $end
$var parameter 8 O s1 $end
$var parameter 8 P s2 $end
$var reg 32 Q VOUT [31:0] $end
$var reg 32 R Vth [31:0] $end
$var reg 32 S a [31:0] $end
$var reg 32 T ext_a [31:0] $end
$var reg 32 U ext_w [31:0] $end
$var reg 1 V i_out $end
$var reg 32 W leaky [31:0] $end
$var reg 8 X n_s [7:0] $end
$var reg 32 Y v [31:0] $end
$var reg 32 Z w [31:0] $end
$var integer 32 [ i [31:0] $end
$var integer 32 \ n [31:0] $end
$scope module req_gen $end
$var wire 1 . clk $end
$var wire 1 1 rst $end
$var wire 16 ] seed [15:0] $end
$var reg 16 ^ lfsr [15:0] $end
$var reg 1 M req $end
$upscope $end
$upscope $end
$scope module neuron10 $end
$var wire 1 . clk $end
$var wire 32 _ ext_input [31:0] $end
$var wire 8 ` p_s [7:0] $end
$var wire 16 a req_seed [0:15] $end
$var wire 1 1 rst $end
$var wire 8 b sp_in [7:0] $end
$var wire 1 c req $end
$var parameter 8 d s0 $end
$var parameter 8 e s1 $end
$var parameter 8 f s2 $end
$var reg 32 g VOUT [31:0] $end
$var reg 32 h Vth [31:0] $end
$var reg 32 i a [31:0] $end
$var reg 32 j ext_a [31:0] $end
$var reg 32 k ext_w [31:0] $end
$var reg 1 l i_out $end
$var reg 32 m leaky [31:0] $end
$var reg 8 n n_s [7:0] $end
$var reg 32 o v [31:0] $end
$var reg 32 p w [31:0] $end
$var integer 32 q i [31:0] $end
$var integer 32 r n [31:0] $end
$scope module req_gen $end
$var wire 1 . clk $end
$var wire 1 1 rst $end
$var wire 16 s seed [15:0] $end
$var reg 16 t lfsr [15:0] $end
$var reg 1 c req $end
$upscope $end
$upscope $end
$scope module neuron2 $end
$var wire 1 . clk $end
$var wire 32 u ext_input [31:0] $end
$var wire 8 v p_s [7:0] $end
$var wire 16 w req_seed [0:15] $end
$var wire 1 1 rst $end
$var wire 8 x sp_in [7:0] $end
$var wire 1 y req $end
$var parameter 8 z s0 $end
$var parameter 8 { s1 $end
$var parameter 8 | s2 $end
$var reg 32 } VOUT [31:0] $end
$var reg 32 ~ Vth [31:0] $end
$var reg 32 !" a [31:0] $end
$var reg 32 "" ext_a [31:0] $end
$var reg 32 #" ext_w [31:0] $end
$var reg 1 $" i_out $end
$var reg 32 %" leaky [31:0] $end
$var reg 8 &" n_s [7:0] $end
$var reg 32 '" v [31:0] $end
$var reg 32 (" w [31:0] $end
$var integer 32 )" i [31:0] $end
$var integer 32 *" n [31:0] $end
$scope module req_gen $end
$var wire 1 . clk $end
$var wire 1 1 rst $end
$var wire 16 +" seed [15:0] $end
$var reg 16 ," lfsr [15:0] $end
$var reg 1 y req $end
$upscope $end
$upscope $end
$scope module neuron3 $end
$var wire 1 . clk $end
$var wire 32 -" ext_input [31:0] $end
$var wire 8 ." p_s [7:0] $end
$var wire 16 /" req_seed [0:15] $end
$var wire 1 1 rst $end
$var wire 8 0" sp_in [7:0] $end
$var wire 1 1" req $end
$var parameter 8 2" s0 $end
$var parameter 8 3" s1 $end
$var parameter 8 4" s2 $end
$var reg 32 5" VOUT [31:0] $end
$var reg 32 6" Vth [31:0] $end
$var reg 32 7" a [31:0] $end
$var reg 32 8" ext_a [31:0] $end
$var reg 32 9" ext_w [31:0] $end
$var reg 1 :" i_out $end
$var reg 32 ;" leaky [31:0] $end
$var reg 8 <" n_s [7:0] $end
$var reg 32 =" v [31:0] $end
$var reg 32 >" w [31:0] $end
$var integer 32 ?" i [31:0] $end
$var integer 32 @" n [31:0] $end
$scope module req_gen $end
$var wire 1 . clk $end
$var wire 1 1 rst $end
$var wire 16 A" seed [15:0] $end
$var reg 16 B" lfsr [15:0] $end
$var reg 1 1" req $end
$upscope $end
$upscope $end
$scope module neuron4 $end
$var wire 1 . clk $end
$var wire 32 C" ext_input [31:0] $end
$var wire 8 D" p_s [7:0] $end
$var wire 16 E" req_seed [0:15] $end
$var wire 1 1 rst $end
$var wire 8 F" sp_in [7:0] $end
$var wire 1 G" req $end
$var parameter 8 H" s0 $end
$var parameter 8 I" s1 $end
$var parameter 8 J" s2 $end
$var reg 32 K" VOUT [31:0] $end
$var reg 32 L" Vth [31:0] $end
$var reg 32 M" a [31:0] $end
$var reg 32 N" ext_a [31:0] $end
$var reg 32 O" ext_w [31:0] $end
$var reg 1 P" i_out $end
$var reg 32 Q" leaky [31:0] $end
$var reg 8 R" n_s [7:0] $end
$var reg 32 S" v [31:0] $end
$var reg 32 T" w [31:0] $end
$var integer 32 U" i [31:0] $end
$var integer 32 V" n [31:0] $end
$scope module req_gen $end
$var wire 1 . clk $end
$var wire 1 1 rst $end
$var wire 16 W" seed [15:0] $end
$var reg 16 X" lfsr [15:0] $end
$var reg 1 G" req $end
$upscope $end
$upscope $end
$scope module neuron5 $end
$var wire 1 . clk $end
$var wire 32 Y" ext_input [31:0] $end
$var wire 8 Z" p_s [7:0] $end
$var wire 16 [" req_seed [0:15] $end
$var wire 1 1 rst $end
$var wire 8 \" sp_in [7:0] $end
$var wire 1 ]" req $end
$var parameter 8 ^" s0 $end
$var parameter 8 _" s1 $end
$var parameter 8 `" s2 $end
$var reg 32 a" VOUT [31:0] $end
$var reg 32 b" Vth [31:0] $end
$var reg 32 c" a [31:0] $end
$var reg 32 d" ext_a [31:0] $end
$var reg 32 e" ext_w [31:0] $end
$var reg 1 f" i_out $end
$var reg 32 g" leaky [31:0] $end
$var reg 8 h" n_s [7:0] $end
$var reg 32 i" v [31:0] $end
$var reg 32 j" w [31:0] $end
$var integer 32 k" i [31:0] $end
$var integer 32 l" n [31:0] $end
$scope module req_gen $end
$var wire 1 . clk $end
$var wire 1 1 rst $end
$var wire 16 m" seed [15:0] $end
$var reg 16 n" lfsr [15:0] $end
$var reg 1 ]" req $end
$upscope $end
$upscope $end
$scope module neuron6 $end
$var wire 1 . clk $end
$var wire 32 o" ext_input [31:0] $end
$var wire 8 p" p_s [7:0] $end
$var wire 16 q" req_seed [0:15] $end
$var wire 1 1 rst $end
$var wire 8 r" sp_in [7:0] $end
$var wire 1 s" req $end
$var parameter 8 t" s0 $end
$var parameter 8 u" s1 $end
$var parameter 8 v" s2 $end
$var reg 32 w" VOUT [31:0] $end
$var reg 32 x" Vth [31:0] $end
$var reg 32 y" a [31:0] $end
$var reg 32 z" ext_a [31:0] $end
$var reg 32 {" ext_w [31:0] $end
$var reg 1 |" i_out $end
$var reg 32 }" leaky [31:0] $end
$var reg 8 ~" n_s [7:0] $end
$var reg 32 !# v [31:0] $end
$var reg 32 "# w [31:0] $end
$var integer 32 ## i [31:0] $end
$var integer 32 $# n [31:0] $end
$scope module req_gen $end
$var wire 1 . clk $end
$var wire 1 1 rst $end
$var wire 16 %# seed [15:0] $end
$var reg 16 &# lfsr [15:0] $end
$var reg 1 s" req $end
$upscope $end
$upscope $end
$scope module neuron7 $end
$var wire 1 . clk $end
$var wire 32 '# ext_input [31:0] $end
$var wire 8 (# p_s [7:0] $end
$var wire 16 )# req_seed [0:15] $end
$var wire 1 1 rst $end
$var wire 8 *# sp_in [7:0] $end
$var wire 1 +# req $end
$var parameter 8 ,# s0 $end
$var parameter 8 -# s1 $end
$var parameter 8 .# s2 $end
$var reg 32 /# VOUT [31:0] $end
$var reg 32 0# Vth [31:0] $end
$var reg 32 1# a [31:0] $end
$var reg 32 2# ext_a [31:0] $end
$var reg 32 3# ext_w [31:0] $end
$var reg 1 4# i_out $end
$var reg 32 5# leaky [31:0] $end
$var reg 8 6# n_s [7:0] $end
$var reg 32 7# v [31:0] $end
$var reg 32 8# w [31:0] $end
$var integer 32 9# i [31:0] $end
$var integer 32 :# n [31:0] $end
$scope module req_gen $end
$var wire 1 . clk $end
$var wire 1 1 rst $end
$var wire 16 ;# seed [15:0] $end
$var reg 16 <# lfsr [15:0] $end
$var reg 1 +# req $end
$upscope $end
$upscope $end
$scope module neuron8 $end
$var wire 1 . clk $end
$var wire 32 =# ext_input [31:0] $end
$var wire 8 ># p_s [7:0] $end
$var wire 16 ?# req_seed [0:15] $end
$var wire 1 1 rst $end
$var wire 8 @# sp_in [7:0] $end
$var wire 1 A# req $end
$var parameter 8 B# s0 $end
$var parameter 8 C# s1 $end
$var parameter 8 D# s2 $end
$var reg 32 E# VOUT [31:0] $end
$var reg 32 F# Vth [31:0] $end
$var reg 32 G# a [31:0] $end
$var reg 32 H# ext_a [31:0] $end
$var reg 32 I# ext_w [31:0] $end
$var reg 1 J# i_out $end
$var reg 32 K# leaky [31:0] $end
$var reg 8 L# n_s [7:0] $end
$var reg 32 M# v [31:0] $end
$var reg 32 N# w [31:0] $end
$var integer 32 O# i [31:0] $end
$var integer 32 P# n [31:0] $end
$scope module req_gen $end
$var wire 1 . clk $end
$var wire 1 1 rst $end
$var wire 16 Q# seed [15:0] $end
$var reg 16 R# lfsr [15:0] $end
$var reg 1 A# req $end
$upscope $end
$upscope $end
$scope module neuron9 $end
$var wire 1 . clk $end
$var wire 32 S# ext_input [31:0] $end
$var wire 8 T# p_s [7:0] $end
$var wire 16 U# req_seed [0:15] $end
$var wire 1 1 rst $end
$var wire 8 V# sp_in [7:0] $end
$var wire 1 W# req $end
$var parameter 8 X# s0 $end
$var parameter 8 Y# s1 $end
$var parameter 8 Z# s2 $end
$var reg 32 [# VOUT [31:0] $end
$var reg 32 \# Vth [31:0] $end
$var reg 32 ]# a [31:0] $end
$var reg 32 ^# ext_a [31:0] $end
$var reg 32 _# ext_w [31:0] $end
$var reg 1 `# i_out $end
$var reg 32 a# leaky [31:0] $end
$var reg 8 b# n_s [7:0] $end
$var reg 32 c# v [31:0] $end
$var reg 32 d# w [31:0] $end
$var integer 32 e# i [31:0] $end
$var integer 32 f# n [31:0] $end
$scope module req_gen $end
$var wire 1 . clk $end
$var wire 1 1 rst $end
$var wire 16 g# seed [15:0] $end
$var reg 16 h# lfsr [15:0] $end
$var reg 1 W# req $end
$upscope $end
$upscope $end
$scope module uut $end
$var wire 1 . clk $end
$var wire 8 i# freq_control [7:0] $end
$var wire 1 1 rst $end
$var wire 16 j# sine_wave_out [15:0] $end
$var wire 32 k# bitstream_out [31:0] $end
$scope module bitstream_conv $end
$var wire 1 1 rst $end
$var wire 16 l# y_t [15:0] $end
$var reg 32 m# bitstream_out [31:0] $end
$var integer 32 n# i [31:0] $end
$var integer 32 o# num_on_bits [31:0] $end
$upscope $end
$scope module sine_gen $end
$var wire 1 . clk $end
$var wire 8 p# freq_control [7:0] $end
$var wire 1 1 rst $end
$var reg 8 q# clk_divider [7:0] $end
$var reg 6 r# phase_accumulator [5:0] $end
$var reg 16 s# sine_wave_out [15:0] $end
$upscope $end
$upscope $end
$upscope $end
$enddefinitions $end
$comment Show the parameter values. $end
$dumpall
b10 Z#
b1 Y#
b0 X#
b10 D#
b1 C#
b0 B#
b10 .#
b1 -#
b0 ,#
b10 v"
b1 u"
b0 t"
b10 `"
b1 _"
b0 ^"
b10 J"
b1 I"
b0 H"
b10 4"
b1 3"
b0 2"
b10 |
b1 {
b0 z
b10 f
b1 e
b0 d
b10 P
b1 O
b0 N
$end
#0
$dumpvars
b0 s#
b0 r#
b0 q#
b101 p#
bx o#
bx n#
b0 m#
b0 l#
b0 k#
b0 j#
b101 i#
b1101111011110000 h#
b1101111011110000 g#
bx f#
bx e#
b10000000000000 d#
b0 c#
b0 b#
b10000000000000 a#
0`#
b100000000 _#
bx ^#
bx ]#
b1111110010010011 \#
bx [#
0W#
bx V#
b1101111011110000 U#
b0 T#
b0 S#
b1001101010111100 R#
b1001101010111100 Q#
bx P#
bx O#
b10000000000000 N#
b0 M#
b0 L#
b10000000000000 K#
0J#
b100000000 I#
bx H#
bx G#
b1111110010010011 F#
bx E#
0A#
bx @#
b1001101010111100 ?#
b0 >#
b0 =#
b101011001111000 <#
b101011001111000 ;#
bx :#
bx 9#
b10000000000000 8#
b0 7#
b0 6#
b10000000000000 5#
04#
b100000000 3#
bx 2#
bx 1#
b1111110010010011 0#
bx /#
0+#
bx *#
b101011001111000 )#
b0 (#
b0 '#
b1001000110100 &#
b1001000110100 %#
bx $#
bx ##
b10000000000000 "#
b0 !#
b0 ~"
b10000000000000 }"
0|"
b100000000 {"
bx z"
bx y"
b1111110010010011 x"
bx w"
0s"
bx r"
b1001000110100 q"
b0 p"
b0 o"
b1111101011001110 n"
b1111101011001110 m"
bx l"
bx k"
b10000000000000 j"
b0 i"
b0 h"
b10000000000000 g"
0f"
b100000000 e"
bx d"
bx c"
b1111110010010011 b"
bx a"
0]"
bx \"
b1111101011001110 ["
b0 Z"
b0 Y"
b1101111010101101 X"
b1101111010101101 W"
bx V"
bx U"
b10000000000000 T"
b0 S"
b0 R"
b10000000000000 Q"
0P"
b100000000 O"
bx N"
bx M"
b1111110010010011 L"
bx K"
0G"
bx F"
b1101111010101101 E"
b0 D"
b0 C"
b1100000011011110 B"
b1100000011011110 A"
bx @"
bx ?"
b10000000000000 >"
b0 ="
b0 <"
b10000000000000 ;"
0:"
b100000000 9"
bx 8"
bx 7"
b1111110010010011 6"
bx 5"
01"
bx 0"
b1100000011011110 /"
b0 ."
b0 -"
b1011111011101111 ,"
b1011111011101111 +"
bx *"
bx )"
b10000000000000 ("
b0 '"
b0 &"
b10000000000000 %"
0$"
b100000000 #"
bx ""
bx !"
b1111110010010011 ~
bx }
0y
bx x
b1011111011101111 w
b0 v
b0 u
b1111111011011100 t
b1111111011011100 s
bx r
bx q
b10000000000000 p
b0 o
b0 n
b10000000000000 m
0l
b100000000 k
bx j
bx i
b1111110010010011 h
bx g
0c
bx b
b1111111011011100 a
b0 `
b0 _
b1010110011100001 ^
b1010110011100001 ]
bx \
bx [
b10000000000000 Z
b0 Y
b0 X
b10000000000000 W
0V
b100000000 U
bx T
bx S
b1111110010010011 R
bx Q
0M
bx L
b1010110011100001 K
b0 J
b0 I
bx H
bx G
b10000000000000000000000000000011 F
bx E
bx D
bx C
bx B
bx A
bx @
bx ?
bx >
bx =
bx <
b1101111011110000 ;
b1001101010111100 :
b101011001111000 9
b1001000110100 8
b1111101011001110 7
b1101111010101101 6
b1100000011011110 5
b1011111011101111 4
b1111111011011100 3
b1010110011100001 2
11
b101 0
b0 /
0.
bx -
bx ,
bx +
bx *
bx )
bx (
bx '
bx &
bx %
bx $
b0 #
b0 "
b0 !
$end
#5000
b0 n#
b0 o#
01
#10000
b1 `
b1 n
b1111110110111000 t
b1 T#
b1 b#
b1011110111100001 h#
b1 >#
b1 L#
b11010101111001 R#
b1 (#
b1 6#
b1010110011110000 <#
b1 p"
b1 ~"
b10010001101000 &#
b1 Z"
b1 h"
b1111010110011100 n"
b1 D"
b1 R"
1G"
b1011110101011011 X"
b1 ."
b1 <"
b1000000110111101 B"
b1 v
b1 &"
1y
b111110111011110 ,"
b1 J
b1 X
1M
b101100111000010 ^
b1 q#
b1010 G
b0 H
b0 =
b0 b
b0 E
b0 V#
b0 D
b0 @#
b0 C
b0 *#
b0 B
b0 r"
b0 A
b0 \"
b0 @
b0 F"
b0 ?
b0 0"
b0 >
b0 x
b0 <
b0 L
1.
#20000
0.
#30000
b10 q#
0M
b1011001110000100 ^
b0 -
b0 Q
0y
b1111101110111101 ,"
b0 +
b0 }
11"
b1101111011 B"
b111101010110110 X"
b0 )
b0 K"
b1110101100111000 n"
b100100011010001 &#
b101100111100000 <#
1A#
b110101011110011 R#
1W#
b111101111000010 h#
b1111101101110000 t
b100000 [
b0 T
b1000 \
b0 S
b100000 )"
b0 ""
b1000 *"
b0 !"
b100000 U"
b0 N"
b1000 V"
b0 M"
b1010 G
1.
#40000
0.
#50000
b1111011011100000 t
b0 $
b0 [#
0W#
b1111011110000101 h#
b0 %
b0 E#
b1101010111100111 R#
b1011001111000000 <#
1s"
b1001000110100010 &#
b1101011001110000 n"
0G"
b1111010101101101 X"
b0 *
b0 5"
b11011110110 B"
1y
b1111011101111010 ,"
b110011100001000 ^
b11 q#
b100000 e#
b0 ^#
b1000 f#
b0 ]#
b100000 O#
b0 H#
b1000 P#
b0 G#
b100000 U"
b1000 V"
b100000 ?"
b0 8"
b1000 @"
b0 7"
b1010 G
1.
#60000
0.
#70000
b100 q#
b1100111000010001 ^
0y
b1110111011110100 ,"
01"
b110111101100 B"
1G"
b1110101011011010 X"
b1010110011100001 n"
0s"
b10001101000101 &#
b0 '
b0 w"
b110011110000000 <#
b1010101111001111 R#
1W#
b1110111100001010 h#
b1110110111000000 t
b100000 )"
b1000 *"
b100000 ?"
b1000 @"
b100000 ##
b0 z"
b1000 $#
b0 y"
b100000 O#
b1000 P#
b1010 G
1.
#80000
0.
#90000
b1101101110000000 t
0W#
b1101111000010100 h#
b101011110011110 R#
b1100111100000001 <#
1s"
b100011010001011 &#
1]"
b101100111000010 n"
0G"
b1101010110110100 X"
b1101111011000 B"
b1101110111101000 ,"
1M
b1001110000100011 ^
b101 q#
b100000 e#
b1000 f#
b100000 O#
b1000 P#
b100000 U"
b1000 V"
b1010 G
1.
#100000
0.
#110000
b10000 n#
b1111111111111111 #
b1111111111111111 k#
b1111111111111111 m#
b10000 o#
b1000000000000000 !
b1000000000000000 j#
b1000000000000000 l#
b1000000000000000 s#
b1 r#
b0 q#
b11100001000111 ^
b1011101111010001 ,"
b11011110110000 B"
b1010101101101001 X"
0]"
b1011001110000100 n"
b0 (
b0 a"
b1000110100010110 &#
1+#
b1001111000000011 <#
0A#
b1010111100111100 R#
b1011110000101001 h#
b1011011100000001 t
b100000 [
b1000 \
b100000 k"
b0 d"
b1000 l"
b0 c"
b100000 ##
b1000 $#
b100000 O#
b1000 P#
b1010 G
1.
#120000
b1111111111111111 /
b1111111111111111 I
b1111111111111111 _
b1111111111111111 u
b1111111111111111 -"
b1111111111111111 C"
b1111111111111111 Y"
b1111111111111111 o"
b1111111111111111 '#
b1111111111111111 =#
b1111111111111111 S#
0.
#130000
1c
b110111000000010 t
1W#
b111100001010010 h#
b101111001111000 R#
b0 &
b0 /#
b1000000000000 7#
b11110000000111 <#
b1000000000000 !#
0s"
b1101000101101 &#
b110011100001000 n"
1G"
b101011011010010 X"
b110111101100001 B"
1y
b111011110100010 ,"
b1000000000000 Y
b111000010001111 ^
b1 q#
b100000 9#
b1000000000000 2#
b1000 :#
b0 1#
b1000000000000 z"
b100000 ##
b1000 $#
b1000000000000 T
b100000 [
b1000 \
b1010 G
b1000000000000000 H
1.
#140000
0.
#150000
b10 q#
b1110000100011111 ^
b1000000000000 -
b1000000000000 Q
b10000000000000 Y
0y
b1110111101000101 ,"
b1000000000000 '"
11"
b1101111011000011 B"
0G"
b1010110110100100 X"
b1000000000000 S"
b1100111000010001 n"
1s"
b11010001011010 &#
b111100000001111 <#
b1000000000000 &
b1000000000000 /#
b10000000000000 7#
b1011110011110000 R#
0W#
b1111000010100101 h#
b1000000000000 c#
0c
b1101110000000101 t
b0 ,
b0 g
b1000000000000 o
b100000 [
b1000000000000 T
b1000 \
b1000000000000 ""
b100000 )"
b1000 *"
b1000000000000 N"
b100000 U"
b1000 V"
b100000 9#
b1000000000000 2#
b1000 :#
b1000000000000 ^#
b100000 e#
b1000 f#
b100000 q
b1000000000000 j
b1000 r
b0 i
b1010 G
1.
#160000
0.
#170000
1c
b1011100000001011 t
1W#
b1110000101001010 h#
b111100111100000 R#
b10000000000000 &
b10000000000000 /#
b11000000000000 7#
b1111000000011111 <#
b1000000000000 '
b1000000000000 w"
b10000000000000 !#
0s"
b110100010110101 &#
1]"
b1001110000100011 n"
b101101101001000 X"
b1000000000000 ="
b1011110110000111 B"
1y
b1101111010001010 ,"
b10000000000000 -
b10000000000000 Q
b11000000000000 Y
b1100001000111110 ^
b11 q#
b100000 9#
b1000000000000 2#
b1000 :#
b100000 ##
b1000000000000 z"
b1000 $#
b1000000000000 8"
b100000 ?"
b1000 @"
b100000 [
b1000000000000 T
b1000 \
b1010 G
1.
#180000
0.
#190000
b100 q#
0M
b1000010001111101 ^
b11000000000000 -
b11000000000000 Q
b100000000000000 Y
0y
b1011110100010101 ,"
b1000000000000 +
b1000000000000 }
b10000000000000 '"
b111101100001110 B"
b1000000000000 *
b1000000000000 5"
b10000000000000 ="
b1011011010010000 X"
b11100001000111 n"
b1000000000000 i"
1s"
b1101000101101011 &#
b1110000000111110 <#
b11000000000000 &
b11000000000000 /#
b100000000000000 7#
b1111001111000001 R#
0W#
b1100001010010100 h#
b1000000000000 $
b1000000000000 [#
b10000000000000 c#
b111000000010110 t
b1000000000000 ,
b1000000000000 g
b10000000000000 o
b100000 [
b1000000000000 T
b1000 \
b100000 )"
b1000000000000 ""
b1000 *"
b100000 ?"
b1000000000000 8"
b1000 @"
b1000000000000 d"
b100000 k"
b1000 l"
b100000 9#
b1000000000000 2#
b1000 :#
b100000 e#
b1000000000000 ^#
b1000 f#
b100000 q
b1000000000000 j
b1000 r
b1010 G
1.
#200000
0.
#210000
b10000000000000 ,
b10000000000000 g
b11000000000000 o
0c
b1110000000101101 t
b1000010100101001 h#
1A#
b1110011110000010 R#
b100000000000000 &
b100000000000000 /#
b101000000000000 7#
0+#
b1100000001111100 <#
b10000000000000 '
b10000000000000 w"
b11000000000000 !#
b1010001011010111 &#
b1000000000000 (
b1000000000000 a"
b10000000000000 i"
b111000010001111 n"
b110110100100000 X"
b10000000000000 *
b10000000000000 5"
b11000000000000 ="
01"
b1111011000011101 B"
1y
b111101000101010 ,"
1M
b100011111011 ^
b101 q#
b100000 q
b1000000000000 j
b1000 r
b100000 9#
b1000000000000 2#
b1000 :#
b100000 ##
b1000000000000 z"
b1000 $#
b100000 k"
b1000000000000 d"
b1000 l"
b100000 ?"
b1000000000000 8"
b1000 @"
b1010 G
1.
#220000
0.
#230000
b10001 n#
b11111111111111111 #
b11111111111111111 k#
b11111111111111111 m#
b10001 o#
b1000110010001011 !
b1000110010001011 j#
b1000110010001011 l#
b1000110010001011 s#
b10 r#
b0 q#
b1000111110110 ^
b100000000000000 -
b100000000000000 Q
b101000000000000 Y
0y
b1111010001010101 ,"
b10000000000000 +
b10000000000000 }
b11000000000000 '"
11"
b1110110000111010 B"
b1101101001000001 X"
b1110000100011111 n"
b10000000000000 (
b10000000000000 a"
b11000000000000 i"
b100010110101110 &#
b11000000000000 '
b11000000000000 w"
b100000000000000 !#
b1000000011111001 <#
0A#
b1100111100000100 R#
b1000000000000 M#
1W#
b101001010011 h#
1c
b1100000001011010 t
b100000 [
b1000000000000 T
b1000 \
b100000 )"
b1000000000000 ""
b1000 *"
b100000 k"
b1000000000000 d"
b1000 l"
b100000 ##
b1000000000000 z"
b1000 $#
b1000000000000 H#
b100000 O#
b1000 P#
b1010 G
1.
#240000
b11111111111111111 /
b11111111111111111 I
b11111111111111111 _
b11111111111111111 u
b11111111111111111 -"
b11111111111111111 C"
b11111111111111111 Y"
b11111111111111111 o"
b11111111111111111 '#
b11111111111111111 =#
b11111111111111111 S#
0.
#250000
b11000000000000 ,
b11000000000000 g
b100000100000000 o
0c
b1000000010110101 t
b10000000000000 $
b10000000000000 [#
b11000100000000 c#
b1010010100110 h#
b1001111000001001 R#
1+#
b111110011 <#
b100000000000000 '
b100000000000000 w"
b101000100000000 !#
0s"
b1000101101011100 &#
b11000000000000 (
b11000000000000 a"
b100000100000000 i"
b1100001000111110 n"
1G"
b1011010010000011 X"
b11000000000000 *
b11000000000000 5"
b100000100000000 ="
01"
b1101100001110100 B"
1y
b1110100010101010 ,"
b101000000000000 -
b101000000000000 Q
b110000100000000 Y
0M
b10001111101100 ^
b1 q#
b100000 q
b1000100000000 j
b1000 r
b100000 e#
b1000100000000 ^#
b1000 f#
b100000 ##
b1000100000000 z"
b1000 $#
b100000 k"
b1000100000000 d"
b1000 l"
b100000 ?"
b1000100000000 8"
b1000 @"
b100000 [
b1000100000000 T
b1000 \
b1010 G
b1000110010001011 H
1.
#260000
0.
#270000
b10 q#
b100011111011001 ^
0y
b1101000101010100 ,"
b11000000000000 +
b11000000000000 }
b100000100000000 '"
b1011000011101001 B"
b110100100000110 X"
b1000000000000 )
b1000000000000 K"
b10000100000000 S"
0]"
b1000010001111101 n"
b100000100000000 (
b100000100000000 a"
b101001000000000 i"
b1011010111001 &#
b1111100110 <#
b101000000000000 &
b101000000000000 /#
b110000100000000 7#
1A#
b11110000010011 R#
0W#
b10100101001100 h#
b11000100000000 $
b11000100000000 [#
b100001000000000 c#
1c
b101101011 t
b100000 )"
b1000100000000 ""
b1000 *"
b100000 U"
b1000100000000 N"
b1000 V"
b100000 k"
b1000100000000 d"
b1000 l"
b100000 9#
b1000100000000 2#
b1000 :#
b100000 e#
b1000100000000 ^#
b1000 f#
b1010 G
1.
#280000
0.
#290000
b100000100000000 ,
b100000100000000 g
b101001000000000 o
b1011010110 t
b101001010011001 h#
b1000000000000 %
b1000000000000 E#
b10000100000000 M#
b111100000100111 R#
b110000100000000 &
b110000100000000 /#
b111001000000000 7#
0+#
b11111001100 <#
1s"
b10110101110010 &#
1]"
b100011111011 n"
b10000100000000 )
b10000100000000 K"
b11001000000000 S"
0G"
b1101001000001101 X"
11"
b110000111010010 B"
b1010001010101001 ,"
1M
b1000111110110010 ^
b11 q#
b100000 q
b1000100000000 j
b1000 r
b100000 O#
b1000100000000 H#
b1000 P#
b100000 9#
b1000100000000 2#
b1000 :#
b100000 U"
b1000100000000 N"
b1000 V"
b1010 G
1.
#300000
0.
#310000
b100 q#
0M
b1111101100101 ^
b110000100000000 -
b110000100000000 Q
b111001000000000 Y
1y
b100010101010010 ,"
01"
b1100001110100101 B"
b100000100000000 *
b100000100000000 5"
b101001000000000 ="
1G"
b1010010000011011 X"
b1000111110110 n"
b101001000000000 (
b101001000000000 a"
b110001100000000 i"
0s"
b101101011100101 &#
b101000100000000 '
b101000100000000 w"
b110001000000000 !#
b111110011000 <#
b1111000001001111 R#
b10000100000000 %
b10000100000000 E#
b11001000000000 M#
1W#
b1010010100110010 h#
0c
b10110101100 t
b101001000000000 ,
b101001000000000 g
b110001100000000 o
b100000 [
b1000100000000 T
b1000 \
b100000 ?"
b1000100000000 8"
b1000 @"
b100000 k"
b1000100000000 d"
b1000 l"
b100000 ##
b1000100000000 z"
b1000 $#
b100000 O#
b1000100000000 H#
b1000 P#
b100000 q
b1000100000000 j
b1000 r
b1010 G
1.
#320000
0.
#330000
b101101011000 t
b100001000000000 $
b100001000000000 [#
b101001100000000 c#
0W#
b100101001100100 h#
b11001000000000 %
b11001000000000 E#
b100001100000000 M#
b1110000010011110 R#
b1111100110000 <#
1s"
b1011010111001010 &#
b110001100000000 (
b110001100000000 a"
b111010000000000 i"
0]"
b10001111101100 n"
b11001000000000 )
b11001000000000 K"
b100001100000000 S"
b100100000110110 X"
11"
b1000011101001011 B"
b100000100000000 +
b100000100000000 }
b101001000000000 '"
0y
b1000101010100100 ,"
1M
b11111011001010 ^
b101 q#
b100000 e#
b1000100000000 ^#
b1000 f#
b100000 O#
b1000100000000 H#
b1000 P#
b100000 k"
b1000100000000 d"
b1000 l"
b100000 U"
b1000100000000 N"
b1000 V"
b100000 )"
b1000100000000 ""
b1000 *"
b1010 G
1.
#340000
0.
