sim_res/result/tb_top_level_narma_system.vcd
$date
	Mon Nov 18 06:39:21 2024
$end
$version
	Icarus Verilog
$end
$timescale
	1ps
$end
$scope module tb_top_level_narma_system $end
$var wire 16 ! narma_output [15:0] $end
$var wire 32 " narma_bitstream [31:0] $end
$var wire 10 # i_outs [9:0] $end
$var wire 32 $ VOUT9 [31:0] $end
$var wire 32 % VOUT8 [31:0] $end
$var wire 32 & VOUT7 [31:0] $end
$var wire 32 ' VOUT6 [31:0] $end
$var wire 32 ( VOUT5 [31:0] $end
$var wire 32 ) VOUT4 [31:0] $end
$var wire 32 * VOUT3 [31:0] $end
$var wire 32 + VOUT2 [31:0] $end
$var wire 32 , VOUT10 [31:0] $end
$var wire 32 - VOUT1 [31:0] $end
$var reg 1 . clk $end
$var reg 32 / ext_input [31:0] $end
$var reg 1 0 rst $end
$var reg 8 1 sp_in_1 [7:0] $end
$var reg 8 2 sp_in_10 [7:0] $end
$var reg 8 3 sp_in_2 [7:0] $end
$var reg 8 4 sp_in_3 [7:0] $end
$var reg 8 5 sp_in_4 [7:0] $end
$var reg 8 6 sp_in_5 [7:0] $end
$var reg 8 7 sp_in_6 [7:0] $end
$var reg 8 8 sp_in_7 [7:0] $end
$var reg 8 9 sp_in_8 [7:0] $end
$var reg 8 : sp_in_9 [7:0] $end
$var integer 32 ; csv_file [31:0] $end
$scope function convert_to_real $end
$var reg 16 < fixed_point_value [15:0] $end
$upscope $end
$scope module converter $end
$var wire 1 0 rst $end
$var wire 16 = y_t [15:0] $end
$var reg 32 > bitstream_out [31:0] $end
$var integer 32 ? i [31:0] $end
$var integer 32 @ num_on_bits [31:0] $end
$upscope $end
$scope module neuron1 $end
$var wire 1 . clk $end
$var wire 32 A ext_input [31:0] $end
$var wire 8 B i_in [7:0] $end
$var wire 8 C p_s [7:0] $end
$var wire 1 0 rst $end
$var parameter 8 D s0 $end
$var parameter 8 E s1 $end
$var parameter 8 F s2 $end
$var reg 32 G VOUT [31:0] $end
$var reg 32 H Vth [31:0] $end
$var reg 32 I a [31:0] $end
$var reg 32 J a_delayed [31:0] $end
$var reg 32 K ext_a [31:0] $end
$var reg 32 L ext_w [31:0] $end
$var reg 1 M i_out $end
$var reg 32 N leaky [31:0] $end
$var reg 8 O n_s [7:0] $end
$var reg 32 P v [31:0] $end
$var reg 32 Q w [31:0] $end
$var integer 32 R i [31:0] $end
$var integer 32 S n [31:0] $end
$upscope $end
$scope module neuron10 $end
$var wire 1 . clk $end
$var wire 32 T ext_input [31:0] $end
$var wire 8 U i_in [7:0] $end
$var wire 8 V p_s [7:0] $end
$var wire 1 0 rst $end
$var parameter 8 W s0 $end
$var parameter 8 X s1 $end
$var parameter 8 Y s2 $end
$var reg 32 Z VOUT [31:0] $end
$var reg 32 [ Vth [31:0] $end
$var reg 32 \ a [31:0] $end
$var reg 32 ] a_delayed [31:0] $end
$var reg 32 ^ ext_a [31:0] $end
$var reg 32 _ ext_w [31:0] $end
$var reg 1 ` i_out $end
$var reg 32 a leaky [31:0] $end
$var reg 8 b n_s [7:0] $end
$var reg 32 c v [31:0] $end
$var reg 32 d w [31:0] $end
$var integer 32 e i [31:0] $end
$var integer 32 f n [31:0] $end
$upscope $end
$scope module neuron2 $end
$var wire 1 . clk $end
$var wire 32 g ext_input [31:0] $end
$var wire 8 h i_in [7:0] $end
$var wire 8 i p_s [7:0] $end
$var wire 1 0 rst $end
$var parameter 8 j s0 $end
$var parameter 8 k s1 $end
$var parameter 8 l s2 $end
$var reg 32 m VOUT [31:0] $end
$var reg 32 n Vth [31:0] $end
$var reg 32 o a [31:0] $end
$var reg 32 p a_delayed [31:0] $end
$var reg 32 q ext_a [31:0] $end
$var reg 32 r ext_w [31:0] $end
$var reg 1 s i_out $end
$var reg 32 t leaky [31:0] $end
$var reg 8 u n_s [7:0] $end
$var reg 32 v v [31:0] $end
$var reg 32 w w [31:0] $end
$var integer 32 x i [31:0] $end
$var integer 32 y n [31:0] $end
$upscope $end
$scope module neuron3 $end
$var wire 1 . clk $end
$var wire 32 z ext_input [31:0] $end
$var wire 8 { i_in [7:0] $end
$var wire 8 | p_s [7:0] $end
$var wire 1 0 rst $end
$var parameter 8 } s0 $end
$var parameter 8 ~ s1 $end
$var parameter 8 !" s2 $end
$var reg 32 "" VOUT [31:0] $end
$var reg 32 #" Vth [31:0] $end
$var reg 32 $" a [31:0] $end
$var reg 32 %" a_delayed [31:0] $end
$var reg 32 &" ext_a [31:0] $end
$var reg 32 '" ext_w [31:0] $end
$var reg 1 (" i_out $end
$var reg 32 )" leaky [31:0] $end
$var reg 8 *" n_s [7:0] $end
$var reg 32 +" v [31:0] $end
$var reg 32 ," w [31:0] $end
$var integer 32 -" i [31:0] $end
$var integer 32 ." n [31:0] $end
$upscope $end
$scope module neuron4 $end
$var wire 1 . clk $end
$var wire 32 /" ext_input [31:0] $end
$var wire 8 0" i_in [7:0] $end
$var wire 8 1" p_s [7:0] $end
$var wire 1 0 rst $end
$var parameter 8 2" s0 $end
$var parameter 8 3" s1 $end
$var parameter 8 4" s2 $end
$var reg 32 5" VOUT [31:0] $end
$var reg 32 6" Vth [31:0] $end
$var reg 32 7" a [31:0] $end
$var reg 32 8" a_delayed [31:0] $end
$var reg 32 9" ext_a [31:0] $end
$var reg 32 :" ext_w [31:0] $end
$var reg 1 ;" i_out $end
$var reg 32 <" leaky [31:0] $end
$var reg 8 =" n_s [7:0] $end
$var reg 32 >" v [31:0] $end
$var reg 32 ?" w [31:0] $end
$var integer 32 @" i [31:0] $end
$var integer 32 A" n [31:0] $end
$upscope $end
$scope module neuron5 $end
$var wire 1 . clk $end
$var wire 32 B" ext_input [31:0] $end
$var wire 8 C" i_in [7:0] $end
$var wire 8 D" p_s [7:0] $end
$var wire 1 0 rst $end
$var parameter 8 E" s0 $end
$var parameter 8 F" s1 $end
$var parameter 8 G" s2 $end
$var reg 32 H" VOUT [31:0] $end
$var reg 32 I" Vth [31:0] $end
$var reg 32 J" a [31:0] $end
$var reg 32 K" a_delayed [31:0] $end
$var reg 32 L" ext_a [31:0] $end
$var reg 32 M" ext_w [31:0] $end
$var reg 1 N" i_out $end
$var reg 32 O" leaky [31:0] $end
$var reg 8 P" n_s [7:0] $end
$var reg 32 Q" v [31:0] $end
$var reg 32 R" w [31:0] $end
$var integer 32 S" i [31:0] $end
$var integer 32 T" n [31:0] $end
$upscope $end
$scope module neuron6 $end
$var wire 1 . clk $end
$var wire 32 U" ext_input [31:0] $end
$var wire 8 V" i_in [7:0] $end
$var wire 8 W" p_s [7:0] $end
$var wire 1 0 rst $end
$var parameter 8 X" s0 $end
$var parameter 8 Y" s1 $end
$var parameter 8 Z" s2 $end
$var reg 32 [" VOUT [31:0] $end
$var reg 32 \" Vth [31:0] $end
$var reg 32 ]" a [31:0] $end
$var reg 32 ^" a_delayed [31:0] $end
$var reg 32 _" ext_a [31:0] $end
$var reg 32 `" ext_w [31:0] $end
$var reg 1 a" i_out $end
$var reg 32 b" leaky [31:0] $end
$var reg 8 c" n_s [7:0] $end
$var reg 32 d" v [31:0] $end
$var reg 32 e" w [31:0] $end
$var integer 32 f" i [31:0] $end
$var integer 32 g" n [31:0] $end
$upscope $end
$scope module neuron7 $end
$var wire 1 . clk $end
$var wire 32 h" ext_input [31:0] $end
$var wire 8 i" i_in [7:0] $end
$var wire 8 j" p_s [7:0] $end
$var wire 1 0 rst $end
$var parameter 8 k" s0 $end
$var parameter 8 l" s1 $end
$var parameter 8 m" s2 $end
$var reg 32 n" VOUT [31:0] $end
$var reg 32 o" Vth [31:0] $end
$var reg 32 p" a [31:0] $end
$var reg 32 q" a_delayed [31:0] $end
$var reg 32 r" ext_a [31:0] $end
$var reg 32 s" ext_w [31:0] $end
$var reg 1 t" i_out $end
$var reg 32 u" leaky [31:0] $end
$var reg 8 v" n_s [7:0] $end
$var reg 32 w" v [31:0] $end
$var reg 32 x" w [31:0] $end
$var integer 32 y" i [31:0] $end
$var integer 32 z" n [31:0] $end
$upscope $end
$scope module neuron8 $end
$var wire 1 . clk $end
$var wire 32 {" ext_input [31:0] $end
$var wire 8 |" i_in [7:0] $end
$var wire 8 }" p_s [7:0] $end
$var wire 1 0 rst $end
$var parameter 8 ~" s0 $end
$var parameter 8 !# s1 $end
$var parameter 8 "# s2 $end
$var reg 32 ## VOUT [31:0] $end
$var reg 32 $# Vth [31:0] $end
$var reg 32 %# a [31:0] $end
$var reg 32 &# a_delayed [31:0] $end
$var reg 32 '# ext_a [31:0] $end
$var reg 32 (# ext_w [31:0] $end
$var reg 1 )# i_out $end
$var reg 32 *# leaky [31:0] $end
$var reg 8 +# n_s [7:0] $end
$var reg 32 ,# v [31:0] $end
$var reg 32 -# w [31:0] $end
$var integer 32 .# i [31:0] $end
$var integer 32 /# n [31:0] $end
$upscope $end
$scope module neuron9 $end
$var wire 1 . clk $end
$var wire 32 0# ext_input [31:0] $end
$var wire 8 1# i_in [7:0] $end
$var wire 8 2# p_s [7:0] $end
$var wire 1 0 rst $end
$var parameter 8 3# s0 $end
$var parameter 8 4# s1 $end
$var parameter 8 5# s2 $end
$var reg 32 6# VOUT [31:0] $end
$var reg 32 7# Vth [31:0] $end
$var reg 32 8# a [31:0] $end
$var reg 32 9# a_delayed [31:0] $end
$var reg 32 :# ext_a [31:0] $end
$var reg 32 ;# ext_w [31:0] $end
$var reg 1 <# i_out $end
$var reg 32 =# leaky [31:0] $end
$var reg 8 ># n_s [7:0] $end
$var reg 32 ?# v [31:0] $end
$var reg 32 @# w [31:0] $end
$var integer 32 A# i [31:0] $end
$var integer 32 B# n [31:0] $end
$upscope $end
$scope module uut $end
$var wire 1 . clk $end
$var wire 1 0 rst $end
$var wire 16 C# narma_output [15:0] $end
$var wire 16 D# lfsr_output [15:0] $end
$scope module lfsr_inst $end
$var wire 1 . clk $end
$var wire 1 0 rst $end
$var reg 16 E# lfsr [15:0] $end
$var reg 16 F# lfsr_out [15:0] $end
$upscope $end
$scope module narma_gen $end
$var wire 1 . clk $end
$var wire 1 0 rst $end
$var wire 16 G# u_t [15:0] $end
$var parameter 32 H# N $end
$var reg 16 I# y_t [15:0] $end
$var integer 32 J# i [31:0] $end
$upscope $end
$upscope $end
$upscope $end
$enddefinitions $end
$comment Show the parameter values. $end
$dumpall
b1010 H#
b10 5#
b1 4#
b0 3#
b10 "#
b1 !#
b0 ~"
b10 m"
b1 l"
b0 k"
b10 Z"
b1 Y"
b0 X"
b10 G"
b1 F"
b0 E"
b10 4"
b1 3"
b0 2"
b10 !"
b1 ~
b0 }
b10 l
b1 k
b0 j
b10 Y
b1 X
b0 W
b10 F
b1 E
b0 D
$end
#0
$dumpvars
b1010 J#
b0 I#
bx G#
bx F#
b1010110011100001 E#
bx D#
b0 C#
bx B#
bx A#
b10000000000000 @#
b0 ?#
b0 >#
b10000000000000 =#
0<#
b100000000 ;#
bx :#
b0 9#
bx 8#
b1111110010010011 7#
bx 6#
b0 2#
bx 1#
b0 0#
bx /#
bx .#
b10000000000000 -#
b0 ,#
b0 +#
b10000000000000 *#
0)#
b100000000 (#
bx '#
b0 &#
bx %#
b1111110010010011 $#
bx ##
b0 }"
bx |"
b0 {"
bx z"
bx y"
b10000000000000 x"
b0 w"
b0 v"
b10000000000000 u"
0t"
b100000000 s"
bx r"
b0 q"
bx p"
b1111110010010011 o"
bx n"
b0 j"
bx i"
b0 h"
bx g"
bx f"
b10000000000000 e"
b0 d"
b0 c"
b10000000000000 b"
0a"
b100000000 `"
bx _"
b0 ^"
bx ]"
b1111110010010011 \"
bx ["
b0 W"
bx V"
b0 U"
bx T"
bx S"
b10000000000000 R"
b0 Q"
b0 P"
b10000000000000 O"
0N"
b100000000 M"
bx L"
b0 K"
bx J"
b1111110010010011 I"
bx H"
b0 D"
bx C"
b0 B"
bx A"
bx @"
b10000000000000 ?"
b0 >"
b0 ="
b10000000000000 <"
0;"
b100000000 :"
bx 9"
b0 8"
bx 7"
b1111110010010011 6"
bx 5"
b0 1"
bx 0"
b0 /"
bx ."
bx -"
b10000000000000 ,"
b0 +"
b0 *"
b10000000000000 )"
0("
b100000000 '"
bx &"
b0 %"
bx $"
b1111110010010011 #"
bx ""
b0 |
bx {
b0 z
bx y
bx x
b10000000000000 w
b0 v
b0 u
b10000000000000 t
0s
b100000000 r
bx q
b0 p
bx o
b1111110010010011 n
bx m
b0 i
bx h
b0 g
bx f
bx e
b10000000000000 d
b0 c
b0 b
b10000000000000 a
0`
b100000000 _
bx ^
b0 ]
bx \
b1111110010010011 [
bx Z
b0 V
bx U
b0 T
bx S
bx R
b10000000000000 Q
b0 P
b0 O
b10000000000000 N
0M
b100000000 L
bx K
b0 J
bx I
b1111110010010011 H
bx G
b0 C
bx B
b0 A
bx @
bx ?
b0 >
b0 =
bx <
b10000000000000000000000000000011 ;
bx :
bx 9
bx 8
bx 7
bx 6
bx 5
bx 4
bx 3
bx 2
bx 1
10
b0 /
0.
bx -
bx ,
bx +
bx *
bx )
bx (
bx '
bx &
bx %
bx $
b0 #
b0 "
b0 !
$end
#5000
b101011001110000 D#
b101011001110000 F#
b101011001110000 G#
b101100111000011 E#
b0 ?
b0 @
00
#50000
b1 V
b1 b
b1 2#
b1 >#
b1 }"
b1 +#
b1 j"
b1 v"
b1 W"
b1 c"
b1 D"
b1 P"
b1 1"
b1 ="
b1 |
b1 *"
b1 i
b1 u
b1 C
b1 O
b10000000000 !
b10000000000 =
b10000000000 C#
b10000000000 I#
b10110011100001 D#
b10110011100001 F#
b10110011100001 G#
b1011001110000111 E#
b0 J#
b0 <
b0 2
b0 U
b0 :
b0 1#
b0 9
b0 |"
b0 8
b0 i"
b0 7
b0 V"
b0 6
b0 C"
b0 5
b0 0"
b0 4
b0 {
b0 3
b0 h
b0 1
b0 B
1.
#100000
0.
#150000
b0 -
b0 G
b0 +
b0 m
b0 *
b0 ""
b0 )
b0 5"
b0 (
b0 H"
b0 '
b0 ["
b0 &
b0 n"
b0 %
b0 ##
b0 $
b0 6#
b0 ,
b0 Z
b101100111000011 D#
b101100111000011 F#
b101100111000011 G#
b110011100001111 E#
b0 J#
b100000 R
b0 K
b1000 S
b0 I
b100000 x
b0 q
b1000 y
b0 o
b100000 -"
b0 &"
b1000 ."
b0 $"
b100000 @"
b0 9"
b1000 A"
b0 7"
b100000 S"
b0 L"
b1000 T"
b0 J"
b100000 f"
b0 _"
b1000 g"
b0 ]"
b100000 y"
b0 r"
b1000 z"
b0 p"
b100000 .#
b0 '#
b1000 /#
b0 %#
b100000 A#
b0 :#
b1000 B#
b0 8#
b100000 e
b0 ^
b1000 f
b0 \
b10000000000 <
1.
#200000
0.
#250000
b11000000000 !
b11000000000 =
b11000000000 C#
b11000000000 I#
b11001110000111 D#
b11001110000111 F#
b11001110000111 G#
b1100111000011110 E#
b100000 e
b1000 f
b100000 A#
b1000 B#
b100000 .#
b1000 /#
b100000 y"
b1000 z"
b100000 f"
b1000 g"
b100000 S"
b1000 T"
b100000 @"
b1000 A"
b100000 -"
b1000 ."
b100000 x
b1000 y
b100000 R
b1000 S
b0 J#
1.
#300000
0.
#350000
b11010 ?
b11111111111111111111111111 "
b11111111111111111111111111 >
b11010 @
b1101001011001100 !
b1101001011001100 =
b1101001011001100 C#
b1101001011001100 I#
b110011100001111 D#
b110011100001111 F#
b110011100001111 G#
b1001110000111100 E#
b0 J#
b100000 R
b1000 S
b100000 x
b1000 y
b100000 -"
b1000 ."
b100000 @"
b1000 A"
b100000 S"
b1000 T"
b100000 f"
b1000 g"
b100000 y"
b1000 z"
b100000 .#
b1000 /#
b100000 A#
b1000 B#
b100000 e
b1000 f
b11000000000 <
1.
#400000
b11111111111111111111111111 /
b11111111111111111111111111 A
b11111111111111111111111111 T
b11111111111111111111111111 g
b11111111111111111111111111 z
b11111111111111111111111111 /"
b11111111111111111111111111 B"
b11111111111111111111111111 U"
b11111111111111111111111111 h"
b11111111111111111111111111 {"
b11111111111111111111111111 0#
0.
#450000
b1101 ?
b1111111111111 "
b1111111111111 >
b1101 @
b1101000000000 c
b1101000000000 ?#
b1101000000000 ,#
b1101000000000 w"
b1101000000000 d"
b1101000000000 Q"
b1101000000000 >"
b1101000000000 +"
b1101000000000 v
b1101000000000 P
b110110101100110 !
b110110101100110 =
b110110101100110 C#
b110110101100110 I#
b100111000011110 D#
b100111000011110 F#
b100111000011110 G#
b11100001111001 E#
b1101000000000 ^
b100000 e
b1000 f
b1101000000000 :#
b100000 A#
b1000 B#
b1101000000000 '#
b100000 .#
b1000 /#
b1101000000000 r"
b100000 y"
b1000 z"
b1101000000000 _"
b100000 f"
b1000 g"
b1101000000000 L"
b100000 S"
b1000 T"
b1101000000000 9"
b100000 @"
b1000 A"
b1101000000000 &"
b100000 -"
b1000 ."
b1101000000000 q
b100000 x
b1000 y
b1101000000000 K
b100000 R
b1000 S
b0 J#
b1101001011001100 <
1.
#500000
b1111111111111 /
b1111111111111 A
b1111111111111 T
b1111111111111 g
b1111111111111 z
b1111111111111 /"
b1111111111111 B"
b1111111111111 U"
b1111111111111 h"
b1111111111111 {"
b1111111111111 0#
0.
#550000
b11000 ?
b111111111111111111111111 "
b111111111111111111111111 >
b11000 @
b1100011000110010 !
b1100011000110010 =
b1100011000110010 C#
b1100011000110010 I#
b1101000000000 -
b1101000000000 G
b10011100000000 P
b1101000000000 +
b1101000000000 m
b10011100000000 v
b1101000000000 *
b1101000000000 ""
b10011100000000 +"
b1101000000000 )
b1101000000000 5"
b10011100000000 >"
b1101000000000 (
b1101000000000 H"
b10011100000000 Q"
b1101000000000 '
b1101000000000 ["
b10011100000000 d"
b1101000000000 &
b1101000000000 n"
b10011100000000 w"
b1101000000000 %
b1101000000000 ##
b10011100000000 ,#
b1101000000000 $
b1101000000000 6#
b10011100000000 ?#
b1101000000000 ,
b1101000000000 Z
b10011100000000 c
b1110000111100 D#
b1110000111100 F#
b1110000111100 G#
b111000011110010 E#
b0 J#
b100000 R
b110100000000 K
b1000 S
b100000 x
b110100000000 q
b1000 y
b100000 -"
b110100000000 &"
b1000 ."
b100000 @"
b110100000000 9"
b1000 A"
b100000 S"
b110100000000 L"
b1000 T"
b100000 f"
b110100000000 _"
b1000 g"
b100000 y"
b110100000000 r"
b1000 z"
b100000 .#
b110100000000 '#
b1000 /#
b100000 A#
b110100000000 :#
b1000 B#
b100000 e
b110100000000 ^
b1000 f
b110110101100110 <
1.
#600000
b111111111111111111111111 /
b111111111111111111111111 A
b111111111111111111111111 T
b111111111111111111111111 g
b111111111111111111111111 z
b111111111111111111111111 /"
b111111111111111111111111 B"
b111111111111111111111111 U"
b111111111111111111111111 h"
b111111111111111111111111 {"
b111111111111111111111111 0#
0.
#650000
b1011 ?
b11111111111 "
b11111111111 >
b1011 @
b10011100000000 ,
b10011100000000 Z
b11111100000000 c
b10011100000000 $
b10011100000000 6#
b11111100000000 ?#
b10011100000000 %
b10011100000000 ##
b11111100000000 ,#
b10011100000000 &
b10011100000000 n"
b11111100000000 w"
b10011100000000 '
b10011100000000 ["
b11111100000000 d"
b10011100000000 (
b10011100000000 H"
b11111100000000 Q"
b10011100000000 )
b10011100000000 5"
b11111100000000 >"
b10011100000000 *
b10011100000000 ""
b11111100000000 +"
b10011100000000 +
b10011100000000 m
b11111100000000 v
b10011100000000 -
b10011100000000 G
b11111100000000 P
b101101101111011 !
b101101101111011 =
b101101101111011 C#
b101101101111011 I#
b11100001111001 D#
b11100001111001 F#
b11100001111001 G#
b1110000111100100 E#
b100000 e
b1100000000000 ^
b1000 f
b100000 A#
b1100000000000 :#
b1000 B#
b100000 .#
b1100000000000 '#
b1000 /#
b100000 y"
b1100000000000 r"
b1000 z"
b100000 f"
b1100000000000 _"
b1000 g"
b100000 S"
b1100000000000 L"
b1000 T"
b100000 @"
b1100000000000 9"
b1000 A"
b100000 -"
b1100000000000 &"
b1000 ."
b100000 x
b1100000000000 q
b1000 y
b100000 R
b1100000000000 K
b1000 S
b0 J#
b1100011000110010 <
1.
#700000
b11111111111 /
b11111111111 A
b11111111111 T
b11111111111 g
b11111111111 z
b11111111111 /"
b11111111111 B"
b11111111111 U"
b11111111111 h"
b11111111111 {"
b11111111111 0#
0.
#750000
b1100 ?
b111111111111 "
b111111111111 >
b1100 @
b110001011010011 !
b110001011010011 =
b110001011010011 C#
b110001011010011 I#
b11111100000000 -
b11111100000000 G
b100101000000000 P
b11111100000000 +
b11111100000000 m
b100101000000000 v
b11111100000000 *
b11111100000000 ""
b100101000000000 +"
b11111100000000 )
b11111100000000 5"
b100101000000000 >"
b11111100000000 (
b11111100000000 H"
b100101000000000 Q"
b11111100000000 '
b11111100000000 ["
b100101000000000 d"
b11111100000000 &
b11111100000000 n"
b100101000000000 w"
b11111100000000 %
b11111100000000 ##
b100101000000000 ,#
b11111100000000 $
b11111100000000 6#
b100101000000000 ?#
b11111100000000 ,
b11111100000000 Z
b100101000000000 c
b111000011110010 D#
b111000011110010 F#
b111000011110010 G#
b1100001111001000 E#
b0 J#
b100000 R
b101100000000 K
b1000 S
b100000 x
b101100000000 q
b1000 y
b100000 -"
b101100000000 &"
b1000 ."
b100000 @"
b101100000000 9"
b1000 A"
b100000 S"
b101100000000 L"
b1000 T"
b100000 f"
b101100000000 _"
b1000 g"
b100000 y"
b101100000000 r"
b1000 z"
b100000 .#
b101100000000 '#
b1000 /#
b100000 A#
b101100000000 :#
b1000 B#
b100000 e
b101100000000 ^
b1000 f
b101101101111011 <
1.
#800000
b111111111111 /
b111111111111 A
b111111111111 T
b111111111111 g
b111111111111 z
b111111111111 /"
b111111111111 B"
b111111111111 U"
b111111111111 h"
b111111111111 {"
b111111111111 0#
0.
#850000
b11111 ?
b1111111111111111111111111111111 "
b1111111111111111111111111111111 >
b11111 @
b100101000000000 ,
b100101000000000 Z
b101011000000000 c
b100101000000000 $
b100101000000000 6#
b101011000000000 ?#
b100101000000000 %
b100101000000000 ##
b101011000000000 ,#
b100101000000000 &
b100101000000000 n"
b101011000000000 w"
b100101000000000 '
b100101000000000 ["
b101011000000000 d"
b100101000000000 (
b100101000000000 H"
b101011000000000 Q"
b100101000000000 )
b100101000000000 5"
b101011000000000 >"
b100101000000000 *
b100101000000000 ""
b101011000000000 +"
b100101000000000 +
b100101000000000 m
b101011000000000 v
b100101000000000 -
b100101000000000 G
b101011000000000 P
b1111111101011010 !
b1111111101011010 =
b1111111101011010 C#
b1111111101011010 I#
b110000111100100 D#
b110000111100100 F#
b110000111100100 G#
b1000011110010001 E#
b100000 e
b110000000000 ^
b1000 f
b100000 A#
b110000000000 :#
b1000 B#
b100000 .#
b110000000000 '#
b1000 /#
b100000 y"
b110000000000 r"
b1000 z"
b100000 f"
b110000000000 _"
b1000 g"
b100000 S"
b110000000000 L"
b1000 T"
b100000 @"
b110000000000 9"
b1000 A"
b100000 -"
b110000000000 &"
b1000 ."
b100000 x
b110000000000 q
b1000 y
b100000 R
b110000000000 K
b1000 S
b0 J#
b110001011010011 <
1.
#900000
b1111111111111111111111111111111 /
b1111111111111111111111111111111 A
b1111111111111111111111111111111 T
b1111111111111111111111111111111 g
b1111111111111111111111111111111 z
b1111111111111111111111111111111 /"
b1111111111111111111111111111111 B"
b1111111111111111111111111111111 U"
b1111111111111111111111111111111 h"
b1111111111111111111111111111111 {"
b1111111111111111111111111111111 0#
0.
#950000
b10 ?
b11 "
b11 >
b10 @
b1010010100110 !
b1010010100110 =
b1010010100110 C#
b1010010100110 I#
b101011000000000 -
b101011000000000 G
b111010100000000 P
b101011000000000 +
b101011000000000 m
b111010100000000 v
b101011000000000 *
b101011000000000 ""
b111010100000000 +"
b101011000000000 )
b101011000000000 5"
b111010100000000 >"
b101011000000000 (
b101011000000000 H"
b111010100000000 Q"
b101011000000000 '
b101011000000000 ["
b111010100000000 d"
b101011000000000 &
b101011000000000 n"
b111010100000000 w"
b101011000000000 %
b101011000000000 ##
b111010100000000 ,#
b101011000000000 $
b101011000000000 6#
b111010100000000 ?#
b101011000000000 ,
b101011000000000 Z
b111010100000000 c
b100001111001000 D#
b100001111001000 F#
b100001111001000 G#
b111100100010 E#
b0 J#
b100000 R
b1111100000000 K
b1000 S
b100000 x
b1111100000000 q
b1000 y
b100000 -"
b1111100000000 &"
b1000 ."
b100000 @"
b1111100000000 9"
b1000 A"
b100000 S"
b1111100000000 L"
b1000 T"
b100000 f"
b1111100000000 _"
b1000 g"
b100000 y"
b1111100000000 r"
b1000 z"
b100000 .#
b1111100000000 '#
b1000 /#
b100000 A#
b1111100000000 :#
b1000 B#
b100000 e
b1111100000000 ^
b1000 f
b1111111101011010 <
1.
#1000000
b11 /
b11 A
b11 T
b11 g
b11 z
b11 /"
b11 B"
b11 U"
b11 h"
b11 {"
b11 0#
0.
#1050000
b10101 ?
b111111111111111111111 "
b111111111111111111111 >
b10101 @
b111010100000000 ,
b111010100000000 Z
b111011100000000 c
b111010100000000 $
b111010100000000 6#
b111011100000000 ?#
b111010100000000 %
b111010100000000 ##
b111011100000000 ,#
b111010100000000 &
b111010100000000 n"
b111011100000000 w"
b111010100000000 '
b111010100000000 ["
b111011100000000 d"
b111010100000000 (
b111010100000000 H"
b111011100000000 Q"
b111010100000000 )
b111010100000000 5"
b111011100000000 >"
b111010100000000 *
b111010100000000 ""
b111011100000000 +"
b111010100000000 +
b111010100000000 m
b111011100000000 v
b111010100000000 -
b111010100000000 G
b111011100000000 P
b1010101000001100 !
b1010101000001100 =
b1010101000001100 C#
b1010101000001100 I#
b11110010001 D#
b11110010001 F#
b11110010001 G#
b1111001000101 E#
b100000 e
b1000000000 ^
b1000 f
b100000 A#
b1000000000 :#
b1000 B#
b100000 .#
b1000000000 '#
b1000 /#
b100000 y"
b1000000000 r"
b1000 z"
b100000 f"
b1000000000 _"
b1000 g"
b100000 S"
b1000000000 L"
b1000 T"
b100000 @"
b1000000000 9"
b1000 A"
b100000 -"
b1000000000 &"
b1000 ."
b100000 x
b1000000000 q
b1000 y
b100000 R
b1000000000 K
b1000 S
b0 J#
b1010010100110 <
1.
#1100000
b111111111111111111111 /
b111111111111111111111 A
b111111111111111111111 T
b111111111111111111111 g
b111111111111111111111 z
b111111111111111111111 /"
b111111111111111111111 B"
b111111111111111111111 U"
b111111111111111111111 h"
b111111111111111111111 {"
b111111111111111111111 0#
0.
#1150000
b101 ?
b11111 "
b11111 >
b101 @
b10100000010101 !
b10100000010101 =
b10100000010101 C#
b10100000010101 I#
b111011100000000 -
b111011100000000 G
b1000110000000000 P
b111011100000000 +
b111011100000000 m
b1000110000000000 v
b111011100000000 *
b111011100000000 ""
b1000110000000000 +"
b111011100000000 )
b111011100000000 5"
b1000110000000000 >"
b111011100000000 (
b111011100000000 H"
b1000110000000000 Q"
b111011100000000 '
b111011100000000 ["
b1000110000000000 d"
b111011100000000 &
b111011100000000 n"
b1000110000000000 w"
b111011100000000 %
b111011100000000 ##
b1000110000000000 ,#
b111011100000000 $
b111011100000000 6#
b1000110000000000 ?#
b111011100000000 ,
b111011100000000 Z
b1000110000000000 c
b111100100010 D#
b111100100010 F#
b111100100010 G#
b11110010001010 E#
b0 J#
b100000 R
b1010100000000 K
b1000 S
b100000 x
b1010100000000 q
b1000 y
b100000 -"
b1010100000000 &"
b1000 ."
b100000 @"
b1010100000000 9"
b1000 A"
b100000 S"
b1010100000000 L"
b1000 T"
b100000 f"
b1010100000000 _"
b1000 g"
b100000 y"
b1010100000000 r"
b1000 z"
b100000 .#
b1010100000000 '#
b1000 /#
b100000 A#
b1010100000000 :#
b1000 B#
b100000 e
b1010100000000 ^
b1000 f
b1010101000001100 <
1.
#1200000
b11111 /
b11111 A
b11111 T
b11111 g
b11111 z
b11111 /"
b11111 B"
b11111 U"
b11111 h"
b11111 {"
b11111 0#
0.
#1250000
b11101 ?
b11111111111111111111111111111 "
b11111111111111111111111111111 >
b11101 @
b1000110000000000 ,
b1000110000000000 Z
b1001000100000000 c
b1000110000000000 $
b1000110000000000 6#
b1001000100000000 ?#
b1000110000000000 %
b1000110000000000 ##
b1001000100000000 ,#
b1000110000000000 &
b1000110000000000 n"
b1001000100000000 w"
b1000110000000000 '
b1000110000000000 ["
b1001000100000000 d"
b1000110000000000 (
b1000110000000000 H"
b1001000100000000 Q"
b1000110000000000 )
b1000110000000000 5"
b1001000100000000 >"
b1000110000000000 *
b1000110000000000 ""
b1001000100000000 +"
b1000110000000000 +
b1000110000000000 m
b1001000100000000 v
b1000110000000000 -
b1000110000000000 G
b1001000100000000 P
b1110111101111100 !
b1110111101111100 =
b1110111101111100 C#
b1110111101111100 I#
b1111001000101 D#
b1111001000101 F#
b1111001000101 G#
b111100100010101 E#
b100000 e
b10100000000 ^
b1000 f
b100000 A#
b10100000000 :#
b1000 B#
b100000 .#
b10100000000 '#
b1000 /#
b100000 y"
b10100000000 r"
b1000 z"
b100000 f"
b10100000000 _"
b1000 g"
b100000 S"
b10100000000 L"
b1000 T"
b100000 @"
b10100000000 9"
b1000 A"
b100000 -"
b10100000000 &"
b1000 ."
b100000 x
b10100000000 q
b1000 y
b100000 R
b10100000000 K
b1000 S
b0 J#
b10100000010101 <
1.
#1300000
b11111111111111111111111111111 /
b11111111111111111111111111111 A
b11111111111111111111111111111 T
b11111111111111111111111111111 g
b11111111111111111111111111111 z
b11111111111111111111111111111 /"
b11111111111111111111111111111 B"
b11111111111111111111111111111 U"
b11111111111111111111111111111 h"
b11111111111111111111111111111 {"
b11111111111111111111111111111 0#
0.
